<?xml version="1.0" encoding="utf-8"?>
<!-- Generator: Adobe Illustrator 24.3.0, SVG Export Plug-In . SVG Version: 6.00 Build 0)  -->
<svg version="1.1" id="Layer_1" xmlns="http://www.w3.org/2000/svg" xmlns:xlink="http://www.w3.org/1999/xlink" x="0px" y="0px"
	 viewBox="0 0 150 132" style="enable-background:new 0 0 150 132;" xml:space="preserve">
<style type="text/css">
	.st0{display:none;}
	.st1{display:inline;}
	.st2{fill-rule:evenodd;clip-rule:evenodd;fill:#F9BF3B;}
	.st3{fill-rule:evenodd;clip-rule:evenodd;fill:#404040;}
	.st4{display:inline;fill-rule:evenodd;clip-rule:evenodd;fill:#404040;}
	.st5{fill:#404040;}
	.st6{font-family:'AlltheWaytotheSun';}
	.st7{font-size:31.2495px;}
	.st8{letter-spacing:4.5;}
	.st9{fill-rule:evenodd;clip-rule:evenodd;fill:#FF6C5C;}
	.st10{font-size:29.1007px;}
	.st11{letter-spacing:3.3;}
</style>
<g class="st0">
	<g class="st1">
		<path class="st2" d="M54.5,52.9c-3.6-1.3-8.3-1.3-15,1.9l-8.2,23.1c6.2-1.9,11.9-5.6,16.4-10L54.5,52.9z"/>
		<path class="st2" d="M27.8,87.4l-5.3,16.1l9.2,2.1l7.5-17c-0.4,0-0.9-0.1-1.3-0.1C34.7,88.7,31.4,88.5,27.8,87.4z"/>
		<path class="st3" d="M75.6,31.1c6.9,0,12.9-6.3,13.3-14s-4.9-14-11.8-14c-0.3,0-0.6,0-0.8,0C66,3.7,61.4,10.5,49.6,6.4
			C53.9,22.8,65,31.1,75.6,31.1z"/>
	</g>
	<path class="st4" d="M24.5,81.5c23.8-2.9,42.6-33.5,24.6-38C42.9,42,31.2,42.2,24,51c3.4-15.1,16.9-25.3,43.5-18.2
		c15.9,4.3,29.7,6.8,36.7-10.2c0,9.1-2.4,24.2-20.6,27.3c0,0-0.3,7.6-1.6,11.9c19,3.5,26.7,19.3,26.7,27.2
		C90.7,72.6,73.6,74.8,65,77c-14.6,3.7-26,18.4-47.2,4.5c1.5,0.2,3,0.2,4.5,0.1L24.5,81.5z"/>
	<g class="st1">
		<g>
			<text transform="matrix(0.8972 0 0 1 3.5723 129.4229)" class="st5 st6 st7 st8">WE START</text>
		</g>
	</g>
</g>
<g>
	<path class="st9" d="M95.6,52.5l0.7-6.1l-7.7,3.3c0.2,1.2,0.3,2.4,0.3,3.5C91.2,52.6,93.4,52.5,95.6,52.5z"/>
	<path class="st9" d="M83.5,103.8l7.1-1.3l3.8-36.9c-4.3,0.8-8,2.5-11.3,4.6L83.5,103.8z"/>
	<path class="st9" d="M97,66.5l-0.8,23.8l7.2-0.9l3.4-22.4C103.2,66.4,99.9,66.2,97,66.5z"/>
	<path class="st9" d="M111.6,32.3L98,37.2l-0.6,15.4c4.1,0.4,7.6,1.6,10.6,3.3L111.6,32.3z"/>
	<path class="st9" d="M117.2,28.3l-3.1,32.1c3,2.7,4.9,5.8,5.7,8.2c-2.2-0.8-4.3-1.5-6.3-2l-1.1,12.2l7.2-0.4l11.5-54L117.2,28.3z"
		/>
	<g>
		<g>
			<path class="st3" d="M74,29c14-5.2,8.7-30.5-6.3-25.1c-9.3,3.7-11.5,11.9-23.4,12.3C52.8,29.1,64.8,32.6,74,29z"/>
		</g>
	</g>
	<g>
		<g>
			<text transform="matrix(0.8972 0 0 1 13.0391 129.5234)" class="st5 st6 st10 st11">WE grow</text>
		</g>
	</g>
	<path class="st3" d="M41.1,91.7c-0.7,0.3-1.3,0.6-2,0.7c-0.7,0.3-1.4,0.5-2,0.7c37,6.8,33.7-42.2,81.9-24.4
		c-2.2-6.9-13.3-18.3-31-14.8c0-4.3-1.9-11-1.9-11c15.2-8.9,13.1-23,10.6-31C94,47.8,32,19.1,34,64.1c3.9-10.2,14.2-14.4,20-15.2
		c2.5-0.3,5-0.1,6.6,1.8c5.8,6.5-2.5,31.8-17.8,40.1C42.1,91.2,41.4,91.5,41.1,91.7z"/>
</g>
</svg>
